{
    "request": {
        "type": "object",
        "properties": {
            "upi_id": {
                "description": "recipient upi id",
                "type": "string",
                "required": true
            },
            "amount": {
                "description": "amount to be sent",
                "type": "float",
                "required": true
            },
            "name": {
                "description": "name of the receiver",
                "type": "string",
                "required": false
            }
        },
        "description": "user sending money to UPI"
    },
    "response": {
        "type": "object",
        "properties": {
            "message": {
                "description": "message",
                "type": "string"
            }
        },
        "required": []
    }
}
